Training for BMKG - HYSPLIT
…
      lat = lat,
      height = height,
      duration = duration,
      days = lubridate::date(date),
      daily_hours = c(0, 6, 12, 18), # The weather dataset is available every 6-hours
      direction = "backward",
      met_type = met_type,
      extended_met = F,
      met_dir = dir_hysplit_met,
      exec_dir = dir_hysplit_output,
      clean_up = F
)
trajs

## # A tibble: 292 x 12
##      run receptor hour_along traj_dt               lat   lon height
##    <int>    <int>      <int> <dttm>              <dbl> <dbl>  <dbl>
##  1     1        1          0 2020-09-01 00:00:00 -6.21  107.   10  
##  2     1        1         -1 2020-08-31 23:00:00 -6.32  107.   11  
##  3     1        1         -2 2020-08-31 22:00:00 -6.44  107.   11.9
##  4     1        1         -3 2020-08-31 21:00:00 -6.56  107.   12.7
##  5     1        1         -4 2020-08-31 20:00:00 -6.69  107.   13.4
##  6     1        1         -5 2020-08-31 19:00:00 -6.82  107.   13.9
##  7     1        1         -6 2020-08-31 18:00:00 -6.96  108.   14.3
##  8     1        1         -7 2020-08-31 17:00:00 -7.10  108.   14.7
##  9     1        1         -8 2020-08-31 16:00:00 -7.22  108.   15.2
## 10     1        1         -9 2020-08-31 15:00:00 -7.33  108.   15.8
## #  with 282 more rows, and 5 more variables: traj_dt_i <dttm>, lat_i <dbl>,
## #   lon_i <dbl>, height_i <dbl>, pressure <dbl>
…
